%YAML 1.1
%TAG !u! tag:unity3d.com,2011:
--- !u!1 &4220755868149049193
GameObject:
  m_ObjectHideFlags: 0
  m_CorrespondingSourceObject: {fileID: 0}
  m_PrefabInstance: {fileID: 0}
  m_PrefabAsset: {fileID: 0}
  serializedVersion: 6
  m_Component:
  - component: {fileID: 4220755868149049195}
  - component: {fileID: 4220755868149049194}
  m_Layer: 0
  m_Name: AI Manager
  m_TagString: Untagged
  m_Icon: {fileID: 0}
  m_NavMeshLayer: 0
  m_StaticEditorFlags: 0
  m_IsActive: 1
--- !u!4 &4220755868149049195
Transform:
  m_ObjectHideFlags: 0
  m_CorrespondingSourceObject: {fileID: 0}
  m_PrefabInstance: {fileID: 0}
  m_PrefabAsset: {fileID: 0}
  m_GameObject: {fileID: 4220755868149049193}
  m_LocalRotation: {x: 0, y: 0, z: 0, w: 1}
  m_LocalPosition: {x: -16.798067, y: -2.4017107, z: -10.49609}
  m_LocalScale: {x: 1, y: 1, z: 1}
  m_Children: []
  m_Father: {fileID: 0}
  m_RootOrder: 0
  m_LocalEulerAnglesHint: {x: 0, y: 0, z: 0}
--- !u!114 &4220755868149049194
MonoBehaviour:
  m_ObjectHideFlags: 0
  m_CorrespondingSourceObject: {fileID: 0}
  m_PrefabInstance: {fileID: 0}
  m_PrefabAsset: {fileID: 0}
  m_GameObject: {fileID: 4220755868149049193}
  m_Enabled: 1
  m_EditorHideFlags: 0
  m_Script: {fileID: 11500000, guid: e821fd9e46289f84496fd66fd6bbd735, type: 3}
  m_Name: 
  m_EditorClassIdentifier: 
  advertisingManager: {fileID: 0}
  maxAIForDay: 0
  AITypes:
  - {fileID: 8515257036218038509, guid: 68a347a0c7139064496b5fd56064759e, type: 3}
  - {fileID: 8515257036218038509, guid: 596d340222eeb6a4bbd49ed12f70325a, type: 3}
  AIPool: []
  activeAI: []
  spawningPoints:
  - {fileID: 0}
  - {fileID: 0}
  - {fileID: 0}
  - {fileID: 0}
  - {fileID: 0}
  - {fileID: 0}
  poolSize: 200
  spawnFrequency: 10
  activeAICounter: 0
  minOffStreetCustomers: 1
  maxOffStreetCustomers: 4
  moraleMultiplier: 2
  firstNames_Female:
  - Sarah
  - Alicia
  - Julie
  - Emma
  - Lara
  - Ann-Marie
  - Ana
  - Ava
  - Yolanda
  - Wendy
  - Goldie
  - Lexi
  - Dorothy
  - Louise
  - Melissa
  - Eve
  - Justine
  - Helen
  - Jo
  - Pam
  firstNames_Male:
  - Bob
  - Adam
  - james
  - Luke
  - Danny
  - Nghia
  - Indy
  - Orian
  - Jon
  - Trent
  - Rusty
  - Doug
  - Wayne
  - Ned
  - Paul
  - Charlie
  - Jaedan
  - Matt
  - Ricky
  - Dylan
  lastNames:
  - Smith
  - Richards
  - Klappers
  - Do
  - Cummins
  - Sinko
  - Brown
  - Ferwerda
  - Kennaway
  - Croft
  - Kelly
  - Blart
  - Marley
  - Clarke
  - Calvetti
  - Bailey
  - Cooper
  - Da'Silva
  - Anderson
  - Fruitcake
  - Fresh
  - Smith
  - Poppy
  - Thor
  - Drake
  - Mario
  - Wonder
  - Cade
  - Prince
  - Foley
  - Trello
  - Git
  - Unity
  - Dru
  - Hawn
  - Moore
  - Dell
  - Rich
  - Warshaw
  - Potter
  veryTriggerPercentage: 80
  normalTriggerPercentage: 50
  dirtyComments:
  - '"This arcade is dirty."'
  - '"This place needs to be better maintained."'
  - '"What''s that smell?"'
  - '"It''s a bit rustic in here."'
  - '"Meh, I have seen places filthier."'
  veryDirtyComments:
  - '"This place is so unhygienic!"'
  - '"I think I saw a cockroach over there!"'
  - '"This place smells like a rubbish dump."'
  - '"Ever heard of a mop?"'
  - '"I don''t feel clean in here."'
  boredComments:
  - '"I''m bored."'
  - '"There''s not enough to do around here."'
  - '"Maybe you could add some more machines?"'
  - '"I wish there was something new to play."'
  veryBoredComments:
  - '"I''m soooo bored."'
  - '"This is the most boring place ever..."'
  - '"I might as well watch paint dry."'
  - '"I''m going somewhere more exciting."'
  hungryComments:
  - '"I''m hungry."'
  - '"Where are the snacks?"'
  - '"I feel a bit nibblish."'
  - '"I could eat some potato chips right now."'
  veryHungryComments:
  - '"I''m sooooo hungry!"'
  - '"My tummy is growling!"'
  - '"I''m so hungry I could eat a horse!"'
  - '"Could do with a three course meal."'
  - '"I''m starving! Where''s the food around here?!"'
  thirstyComments:
  - '"I''m thirsty."'
  - '"I''m parched."'
  - '"Where''s the drinks machine?"'
  - '"I''m feeling a bit dehydrated..."'
  veryThirstyComments:
  - '"I''m sooooo thirsty!"'
  - '"I could do with a drink right now."'
  - '"I''m super dehydrated..."'
  - '"Get outta my way! I''m dying for a drink..."'
  lowMoneyComments:
  - '"I wish I had more money."'
  - '"Wish I had a job. I need more money!"'
  - '"I shouldn''t have bought that new board game... I''m low on money..."'
  - '"I should be saving my money..."'
  veryLowMoneyComments:
  - '"I don''t have much money!"'
  - '"These arcades are priced too high for me!"'
  - '"I guess I''ll have to come back when I have money, or when it''s cheaper."'
  - '*Begging* "Can I have some change, please?"'
  excitedComments:
  - '"This is fun!"'
  - '"This place is cool!"'
  - '"Can''t wait to play some arcades!"'
  - '"Looking forward to playing some new arcades!"'
  veryExcitedComments:
  - '"This is super fun!"'
  - '"Wow, this place is so much fun!"'
  - '"Can''t wait to set a highscore. I''ll be here all day!"'
  - '"This is my new favourite place!"'
  lotsMoneyComments:
  - '"Just got paid! Nice!"'
  - '"Got a new job. It''s nice to have my own money to spend here."'
  - '"I found some money just outside!"'
  - '"Found some spare money at home today."'
  veryLotsMoneyComments:
  - '"Found a lot of money on the side of the road!"'
  - '"Can''t wait to splash some cash."'
  - '"I''ve been saving my money for a while to come here."'
  - '"I''ve brought lots of cash today. I''ve been meaning to beat this highscore
    for a while now."'
  cleanComments:
  - '"The arcade machines are clean."'
  - '"This place looks nice and tidy."'
  - '"Smells fresh in here."'
  veryCleanComments:
  - '"I could eat off these machines they''re so clean."'
  - '"This place is super clean!"'
  - '"Smells really nice in here."'
  indifferentComments:
  - '"This is okay."'
  - '"Place could do with some changes."'
  - '"I''ve seen better arcades."'
  - '"These arcades are meh."'
  - '"This place just doesn''t do much for me."'
