%YAML 1.1
%TAG !u! tag:unity3d.com,2011:
--- !u!114 &11400000
MonoBehaviour:
  m_ObjectHideFlags: 0
  m_CorrespondingSourceObject: {fileID: 0}
  m_PrefabInstance: {fileID: 0}
  m_PrefabAsset: {fileID: 0}
  m_GameObject: {fileID: 0}
  m_Enabled: 1
  m_EditorHideFlags: 0
  m_Script: {fileID: 11500000, guid: c23183616fe428a4ead4a348291e33ea, type: 3}
  m_Name: Fireworks
  m_EditorClassIdentifier: 
  prefab: {fileID: 2816811971172683618, guid: 24cd56fd14984f243b73e5dfb9297769, type: 3}
  tint: {r: 0.5707547, g: 0.68412334, b: 1, a: 1}
  duration: 0
